<?xml version="1.0" encoding="UTF-8" standalone="no"?>
<svg
   xmlns:dc="http://purl.org/dc/elements/1.1/"
   xmlns:cc="http://creativecommons.org/ns#"
   xmlns:rdf="http://www.w3.org/1999/02/22-rdf-syntax-ns#"
   xmlns:svg="http://www.w3.org/2000/svg"
   xmlns="http://www.w3.org/2000/svg"
   xmlns:sodipodi="http://sodipodi.sourceforge.net/DTD/sodipodi-0.dtd"
   xmlns:inkscape="http://www.inkscape.org/namespaces/inkscape"
   width="24"
   height="24"
   viewBox="0 0 24 24"
   fill="none"
   stroke="currentColor"
   stroke-width="2"
   stroke-linecap="round"
   stroke-linejoin="round"
   class="feather feather-star"
   version="1.1"
   id="svg4"
   sodipodi:docname="star-yellow.svg"
   inkscape:version="0.92.5 (2060ec1f9f, 2020-04-08)">
  <metadata
     id="metadata10">
    <rdf:RDF>
      <cc:Work
         rdf:about="">
        <dc:format>image/svg+xml</dc:format>
        <dc:type
           rdf:resource="http://purl.org/dc/dcmitype/StillImage" />
        <dc:title></dc:title>
      </cc:Work>
    </rdf:RDF>
  </metadata>
  <defs
     id="defs8" />
  <sodipodi:namedview
     pagecolor="#ffffff"
     bordercolor="#666666"
     borderopacity="1"
     objecttolerance="10"
     gridtolerance="10"
     guidetolerance="10"
     inkscape:pageopacity="0"
     inkscape:pageshadow="2"
     inkscape:window-width="1848"
     inkscape:window-height="1016"
     id="namedview6"
     showgrid="false"
     inkscape:zoom="9.8333333"
     inkscape:cx="12"
     inkscape:cy="12"
     inkscape:window-x="72"
     inkscape:window-y="27"
     inkscape:window-maximized="1"
     inkscape:current-layer="svg4" />
  <polygon
     points="12 2 15.09 8.26 22 9.27 17 14.14 18.18 21.02 12 17.77 5.82 21.02 7 14.14 2 9.27 8.91 8.26 12 2"
     id="polygon2" />
  <path
     style="fill:#ffff00;stroke-width:0.20338982"
     d="m 7.2610169,18.936492 c 0,-0.08565 0.1851648,-1.218337 0.4114774,-2.517092 C 8.0188074,14.431989 8.0648096,14.011765 7.9629736,13.765911 7.8964248,13.605248 7.0399873,12.699817 6.0597794,11.753843 4.923418,10.657169 4.32986,10.016876 4.4218424,9.9869376 4.501185,9.9611137 5.5957627,9.7930557 6.8542373,9.6134754 8.1127119,9.4338952 9.2687487,9.2232382 9.4232083,9.1453489 9.644789,9.0336122 9.9485571,8.5162636 10.862908,6.6933913 l 1.158864,-2.3103405 1.118896,2.3061898 c 0.90898,1.8735249 1.17309,2.3336516 1.407758,2.4525666 0.158875,0.080507 1.341405,0.2959482 2.627845,0.4787581 1.286441,0.1828097 2.375082,0.3645755 2.419202,0.4039237 0.04412,0.03935 -0.722397,0.839025 -1.703373,1.777058 -1.278043,1.222096 -1.807163,1.796033 -1.866748,2.024865 -0.05906,0.226799 0.03936,1.034934 0.339597,2.788488 0.232514,1.358025 0.392242,2.45633 0.35495,2.440678 -0.03729,-0.01565 -1.053297,-0.54329 -2.257789,-1.172527 -1.258653,-0.657531 -2.31013,-1.144068 -2.472499,-1.144068 -0.249937,0 -1.746004,0.73183 -3.9913059,1.952424 -0.555351,0.301901 -0.7372882,0.362379 -0.7372882,0.245085 z"
     id="path3715"
     inkscape:connector-curvature="0" />
</svg>
